{
  "configVersion": 2,
  "packages": [
    {
      "name": "async",
      "rootUri": "file:///C:/Users/Ananth.G/AppData/Local/Pub/Cache/hosted/pub.dartlang.org/async-2.6.1",
      "packageUri": "lib/",
      "languageVersion": "2.12"
    },
    {
      "name": "boolean_selector",
      "rootUri": "file:///C:/Users/Ananth.G/AppData/Local/Pub/Cache/hosted/pub.dartlang.org/boolean_selector-2.1.0",
      "packageUri": "lib/",
      "languageVersion": "2.12"
    },
    {
      "name": "cached_network_image",
      "rootUri": "file:///C:/Users/Ananth.G/AppData/Local/Pub/Cache/hosted/pub.dartlang.org/cached_network_image-3.0.0",
      "packageUri": "lib/",
      "languageVersion": "2.12"
    },
    {
      "name": "characters",
      "rootUri": "file:///C:/Users/Ananth.G/AppData/Local/Pub/Cache/hosted/pub.dartlang.org/characters-1.1.0",
      "packageUri": "lib/",
      "languageVersion": "2.12"
    },
    {
      "name": "charcode",
      "rootUri": "file:///C:/Users/Ananth.G/AppData/Local/Pub/Cache/hosted/pub.dartlang.org/charcode-1.2.0",
      "packageUri": "lib/",
      "languageVersion": "2.12"
    },
    {
      "name": "clock",
      "rootUri": "file:///C:/Users/Ananth.G/AppData/Local/Pub/Cache/hosted/pub.dartlang.org/clock-1.1.0",
      "packageUri": "lib/",
      "languageVersion": "2.12"
    },
    {
      "name": "collection",
      "rootUri": "file:///C:/Users/Ananth.G/AppData/Local/Pub/Cache/hosted/pub.dartlang.org/collection-1.15.0",
      "packageUri": "lib/",
      "languageVersion": "2.12"
    },
    {
      "name": "crypto",
      "rootUri": "file:///C:/Users/Ananth.G/AppData/Local/Pub/Cache/hosted/pub.dartlang.org/crypto-3.0.1",
      "packageUri": "lib/",
      "languageVersion": "2.12"
    },
    {
      "name": "cupertino_icons",
      "rootUri": "file:///C:/Users/Ananth.G/AppData/Local/Pub/Cache/hosted/pub.dartlang.org/cupertino_icons-1.0.3",
      "packageUri": "lib/",
      "languageVersion": "2.12"
    },
    {
      "name": "fake_async",
      "rootUri": "file:///C:/Users/Ananth.G/AppData/Local/Pub/Cache/hosted/pub.dartlang.org/fake_async-1.2.0",
      "packageUri": "lib/",
      "languageVersion": "2.12"
    },
    {
      "name": "ffi",
      "rootUri": "file:///C:/Users/Ananth.G/AppData/Local/Pub/Cache/hosted/pub.dartlang.org/ffi-1.1.2",
      "packageUri": "lib/",
      "languageVersion": "2.12"
    },
    {
      "name": "file",
      "rootUri": "file:///C:/Users/Ananth.G/AppData/Local/Pub/Cache/hosted/pub.dartlang.org/file-6.1.2",
      "packageUri": "lib/",
      "languageVersion": "2.12"
    },
    {
      "name": "flutter",
      "rootUri": "file:///C:/src/flutter/packages/flutter",
      "packageUri": "lib/",
      "languageVersion": "2.12"
    },
    {
      "name": "flutter_blurhash",
      "rootUri": "file:///C:/Users/Ananth.G/AppData/Local/Pub/Cache/hosted/pub.dartlang.org/flutter_blurhash-0.6.0",
      "packageUri": "lib/",
      "languageVersion": "2.12"
    },
    {
      "name": "flutter_cache_manager",
      "rootUri": "file:///C:/Users/Ananth.G/AppData/Local/Pub/Cache/hosted/pub.dartlang.org/flutter_cache_manager-3.1.2",
      "packageUri": "lib/",
      "languageVersion": "2.12"
    },
    {
      "name": "flutter_custom_clippers",
      "rootUri": "file:///C:/Users/Ananth.G/AppData/Local/Pub/Cache/hosted/pub.dartlang.org/flutter_custom_clippers-1.1.2",
      "packageUri": "lib/",
      "languageVersion": "2.1"
    },
    {
      "name": "flutter_easyloading",
      "rootUri": "file:///C:/Users/Ananth.G/AppData/Local/Pub/Cache/hosted/pub.dartlang.org/flutter_easyloading-3.0.0",
      "packageUri": "lib/",
      "languageVersion": "2.12"
    },
    {
      "name": "flutter_spinkit",
      "rootUri": "file:///C:/Users/Ananth.G/AppData/Local/Pub/Cache/hosted/pub.dartlang.org/flutter_spinkit-5.0.0",
      "packageUri": "lib/",
      "languageVersion": "2.12"
    },
    {
      "name": "flutter_test",
      "rootUri": "file:///C:/src/flutter/packages/flutter_test",
      "packageUri": "lib/",
      "languageVersion": "2.12"
    },
    {
      "name": "flutter_web_plugins",
      "rootUri": "file:///C:/src/flutter/packages/flutter_web_plugins",
      "packageUri": "lib/",
      "languageVersion": "2.12"
    },
    {
      "name": "font_awesome_flutter",
      "rootUri": "file:///C:/Users/Ananth.G/AppData/Local/Pub/Cache/hosted/pub.dartlang.org/font_awesome_flutter-9.1.0",
      "packageUri": "lib/",
      "languageVersion": "2.12"
    },
    {
      "name": "google_fonts",
      "rootUri": "file:///C:/Users/Ananth.G/AppData/Local/Pub/Cache/hosted/pub.dartlang.org/google_fonts-2.1.0",
      "packageUri": "lib/",
      "languageVersion": "2.12"
    },
    {
      "name": "http",
      "rootUri": "file:///C:/Users/Ananth.G/AppData/Local/Pub/Cache/hosted/pub.dartlang.org/http-0.13.3",
      "packageUri": "lib/",
      "languageVersion": "2.12"
    },
    {
      "name": "http_parser",
      "rootUri": "file:///C:/Users/Ananth.G/AppData/Local/Pub/Cache/hosted/pub.dartlang.org/http_parser-4.0.0",
      "packageUri": "lib/",
      "languageVersion": "2.12"
    },
    {
      "name": "js",
      "rootUri": "file:///C:/Users/Ananth.G/AppData/Local/Pub/Cache/hosted/pub.dartlang.org/js-0.6.3",
      "packageUri": "lib/",
      "languageVersion": "2.12"
    },
    {
      "name": "matcher",
      "rootUri": "file:///C:/Users/Ananth.G/AppData/Local/Pub/Cache/hosted/pub.dartlang.org/matcher-0.12.10",
      "packageUri": "lib/",
      "languageVersion": "2.12"
    },
    {
      "name": "meta",
      "rootUri": "file:///C:/Users/Ananth.G/AppData/Local/Pub/Cache/hosted/pub.dartlang.org/meta-1.3.0",
      "packageUri": "lib/",
      "languageVersion": "2.12"
    },
    {
      "name": "octo_image",
      "rootUri": "file:///C:/Users/Ananth.G/AppData/Local/Pub/Cache/hosted/pub.dartlang.org/octo_image-1.0.0+1",
      "packageUri": "lib/",
      "languageVersion": "2.12"
    },
    {
      "name": "path",
      "rootUri": "file:///C:/Users/Ananth.G/AppData/Local/Pub/Cache/hosted/pub.dartlang.org/path-1.8.0",
      "packageUri": "lib/",
      "languageVersion": "2.12"
    },
    {
      "name": "path_provider",
      "rootUri": "file:///C:/Users/Ananth.G/AppData/Local/Pub/Cache/hosted/pub.dartlang.org/path_provider-2.0.2",
      "packageUri": "lib/",
      "languageVersion": "2.12"
    },
    {
      "name": "path_provider_linux",
      "rootUri": "file:///C:/Users/Ananth.G/AppData/Local/Pub/Cache/hosted/pub.dartlang.org/path_provider_linux-2.0.0",
      "packageUri": "lib/",
      "languageVersion": "2.12"
    },
    {
      "name": "path_provider_macos",
      "rootUri": "file:///C:/Users/Ananth.G/AppData/Local/Pub/Cache/hosted/pub.dartlang.org/path_provider_macos-2.0.0",
      "packageUri": "lib/",
      "languageVersion": "2.12"
    },
    {
      "name": "path_provider_platform_interface",
      "rootUri": "file:///C:/Users/Ananth.G/AppData/Local/Pub/Cache/hosted/pub.dartlang.org/path_provider_platform_interface-2.0.1",
      "packageUri": "lib/",
      "languageVersion": "2.12"
    },
    {
      "name": "path_provider_windows",
      "rootUri": "file:///C:/Users/Ananth.G/AppData/Local/Pub/Cache/hosted/pub.dartlang.org/path_provider_windows-2.0.1",
      "packageUri": "lib/",
      "languageVersion": "2.12"
    },
    {
      "name": "pedantic",
      "rootUri": "file:///C:/Users/Ananth.G/AppData/Local/Pub/Cache/hosted/pub.dartlang.org/pedantic-1.11.1",
      "packageUri": "lib/",
      "languageVersion": "2.12"
    },
    {
      "name": "platform",
      "rootUri": "file:///C:/Users/Ananth.G/AppData/Local/Pub/Cache/hosted/pub.dartlang.org/platform-3.0.0",
      "packageUri": "lib/",
      "languageVersion": "2.12"
    },
    {
      "name": "plugin_platform_interface",
      "rootUri": "file:///C:/Users/Ananth.G/AppData/Local/Pub/Cache/hosted/pub.dartlang.org/plugin_platform_interface-2.0.1",
      "packageUri": "lib/",
      "languageVersion": "2.12"
    },
    {
      "name": "process",
      "rootUri": "file:///C:/Users/Ananth.G/AppData/Local/Pub/Cache/hosted/pub.dartlang.org/process-4.2.1",
      "packageUri": "lib/",
      "languageVersion": "2.12"
    },
    {
      "name": "rxdart",
      "rootUri": "file:///C:/Users/Ananth.G/AppData/Local/Pub/Cache/hosted/pub.dartlang.org/rxdart-0.27.1",
      "packageUri": "lib/",
      "languageVersion": "2.12"
    },
    {
      "name": "sky_engine",
      "rootUri": "file:///C:/src/flutter/bin/cache/pkg/sky_engine",
      "packageUri": "lib/",
      "languageVersion": "2.12"
    },
    {
      "name": "source_span",
      "rootUri": "file:///C:/Users/Ananth.G/AppData/Local/Pub/Cache/hosted/pub.dartlang.org/source_span-1.8.1",
      "packageUri": "lib/",
      "languageVersion": "2.12"
    },
    {
      "name": "sqflite",
      "rootUri": "file:///C:/Users/Ananth.G/AppData/Local/Pub/Cache/hosted/pub.dartlang.org/sqflite-2.0.0+3",
      "packageUri": "lib/",
      "languageVersion": "2.12"
    },
    {
      "name": "sqflite_common",
      "rootUri": "file:///C:/Users/Ananth.G/AppData/Local/Pub/Cache/hosted/pub.dartlang.org/sqflite_common-2.0.0+2",
      "packageUri": "lib/",
      "languageVersion": "2.12"
    },
    {
      "name": "stack_trace",
      "rootUri": "file:///C:/Users/Ananth.G/AppData/Local/Pub/Cache/hosted/pub.dartlang.org/stack_trace-1.10.0",
      "packageUri": "lib/",
      "languageVersion": "2.12"
    },
    {
      "name": "step_progress_indicator",
      "rootUri": "file:///C:/Users/Ananth.G/AppData/Local/Pub/Cache/hosted/pub.dartlang.org/step_progress_indicator-0.2.5+8",
      "packageUri": "lib/",
      "languageVersion": "2.1"
    },
    {
      "name": "stream_channel",
      "rootUri": "file:///C:/Users/Ananth.G/AppData/Local/Pub/Cache/hosted/pub.dartlang.org/stream_channel-2.1.0",
      "packageUri": "lib/",
      "languageVersion": "2.12"
    },
    {
      "name": "string_scanner",
      "rootUri": "file:///C:/Users/Ananth.G/AppData/Local/Pub/Cache/hosted/pub.dartlang.org/string_scanner-1.1.0",
      "packageUri": "lib/",
      "languageVersion": "2.12"
    },
    {
      "name": "synchronized",
      "rootUri": "file:///C:/Users/Ananth.G/AppData/Local/Pub/Cache/hosted/pub.dartlang.org/synchronized-3.0.0",
      "packageUri": "lib/",
      "languageVersion": "2.12"
    },
    {
      "name": "term_glyph",
      "rootUri": "file:///C:/Users/Ananth.G/AppData/Local/Pub/Cache/hosted/pub.dartlang.org/term_glyph-1.2.0",
      "packageUri": "lib/",
      "languageVersion": "2.12"
    },
    {
      "name": "test_api",
      "rootUri": "file:///C:/Users/Ananth.G/AppData/Local/Pub/Cache/hosted/pub.dartlang.org/test_api-0.3.0",
      "packageUri": "lib/",
      "languageVersion": "2.12"
    },
    {
      "name": "typed_data",
      "rootUri": "file:///C:/Users/Ananth.G/AppData/Local/Pub/Cache/hosted/pub.dartlang.org/typed_data-1.3.0",
      "packageUri": "lib/",
      "languageVersion": "2.12"
    },
    {
      "name": "url_launcher",
      "rootUri": "file:///C:/Users/Ananth.G/AppData/Local/Pub/Cache/hosted/pub.dartlang.org/url_launcher-6.0.9",
      "packageUri": "lib/",
      "languageVersion": "2.12"
    },
    {
      "name": "url_launcher_linux",
      "rootUri": "file:///C:/Users/Ananth.G/AppData/Local/Pub/Cache/hosted/pub.dartlang.org/url_launcher_linux-2.0.0",
      "packageUri": "lib/",
      "languageVersion": "2.12"
    },
    {
      "name": "url_launcher_macos",
      "rootUri": "file:///C:/Users/Ananth.G/AppData/Local/Pub/Cache/hosted/pub.dartlang.org/url_launcher_macos-2.0.0",
      "packageUri": "lib/",
      "languageVersion": "2.12"
    },
    {
      "name": "url_launcher_platform_interface",
      "rootUri": "file:///C:/Users/Ananth.G/AppData/Local/Pub/Cache/hosted/pub.dartlang.org/url_launcher_platform_interface-2.0.4",
      "packageUri": "lib/",
      "languageVersion": "2.12"
    },
    {
      "name": "url_launcher_web",
      "rootUri": "file:///C:/Users/Ananth.G/AppData/Local/Pub/Cache/hosted/pub.dartlang.org/url_launcher_web-2.0.1",
      "packageUri": "lib/",
      "languageVersion": "2.12"
    },
    {
      "name": "url_launcher_windows",
      "rootUri": "file:///C:/Users/Ananth.G/AppData/Local/Pub/Cache/hosted/pub.dartlang.org/url_launcher_windows-2.0.0",
      "packageUri": "lib/",
      "languageVersion": "2.12"
    },
    {
      "name": "uuid",
      "rootUri": "file:///C:/Users/Ananth.G/AppData/Local/Pub/Cache/hosted/pub.dartlang.org/uuid-3.0.4",
      "packageUri": "lib/",
      "languageVersion": "2.12"
    },
    {
      "name": "vector_math",
      "rootUri": "file:///C:/Users/Ananth.G/AppData/Local/Pub/Cache/hosted/pub.dartlang.org/vector_math-2.1.0",
      "packageUri": "lib/",
      "languageVersion": "2.12"
    },
    {
      "name": "win32",
      "rootUri": "file:///C:/Users/Ananth.G/AppData/Local/Pub/Cache/hosted/pub.dartlang.org/win32-2.2.5",
      "packageUri": "lib/",
      "languageVersion": "2.13"
    },
    {
      "name": "xdg_directories",
      "rootUri": "file:///C:/Users/Ananth.G/AppData/Local/Pub/Cache/hosted/pub.dartlang.org/xdg_directories-0.2.0",
      "packageUri": "lib/",
      "languageVersion": "2.12"
    },
    {
      "name": "niralakam_widget",
      "rootUri": "../",
      "packageUri": "lib/",
      "languageVersion": "2.1"
    }
  ],
  "generated": "2021-07-19T19:23:30.676786Z",
  "generator": "pub",
  "generatorVersion": "2.13.4"
}
